Name,Sex,BirthDate,Division,WeightClassKg,BodyweightKg,Squat1Kg,Squat2Kg,Squat3Kg,Best3SquatKg,Bench1Kg,Bench2Kg,Bench3Kg,Best3BenchKg,Deadlift1Kg,Deadlift2Kg,Deadlift3Kg,Best3DeadliftKg,TotalKg,Place,Event,Equipment
Maria Maurogianni,F,2006-06-29,Sub-Junior,57,56.5,80,85,90,90,45,50,-52.5,50,102.5,112.5,117.5,117.5,257.5,1,SBD,Raw
Eufrosyni Maria Gkadolou,F,2005-04-03,Sub-Junior,63,61.5,-110,110,-115,110,55,-57.5,-57.5,55,125,130,135,135,300,1,SBD,Raw
Danai Kazantzidi,F,2000-07-15,Junior,52,51.7,105,-110,110,110,52.5,55,-57.5,55,127.5,-132.5,-132.5,127.5,292.5,1,SBD,Raw
Andriana Antoniou,F,2000-11-30,Junior,57,56.3,60,70,75,75,30,-40,,30,70,90,-100,90,195,1,SBD,Raw
Mariella Drakaki,F,2001-10-08,Junior,63,60,-120,125,-127.5,125,70,75,-77.5,75,142.5,150,155,155,355,1,SBD,Raw
Caroline Lund,F,2000-04-17,Junior,69,67.7,120,125,-130,125,65,70,75,75,135,145,150,150,350,1,SBD,Raw
Euaggelia Kaloniati,F,2000-08-03,Junior,69,68.2,-97.5,-97.5,97.5,97.5,45,47.5,-50,47.5,120,125,-130,125,270,2,SBD,Raw
Despoina Xaritopoulou,F,1999-06-29,Junior,76,74.15,-145,-145,145,145,65,-70,-70,65,182.5,192.5,-200,192.5,402.5,1,SBD,Raw
Maria Troullaki,F,2000-05-12,Junior,76,71,95,105,110,110,62.5,67.5,-70,67.5,115,-122.5,,115,292.5,2,SBD,Raw
Elli Fountoukidou,F,1993-07-18,Open,47,46.3,80,85,87.5,87.5,57.5,61,62.5,62.5,100,107.5,117.5,117.5,267.5,1,SBD,Raw
Eftychia Maniati,F,1997-06-09,Open,57,55.5,-122.5,-122.5,127.5,127.5,-65,-65,65,65,150,160,-165,160,352.5,1,SBD,Raw
Panagiota Kotrotsou,F,1994-09-25,Open,57,56.6,127.5,132.5,135,135,47.5,52.5,-60,52.5,130,137.5,-145,137.5,325,2,SBD,Raw
Rachil Kotidi,F,1992-10-19,Open,57,55.3,-90,90,-92.5,90,50,55,-57.5,55,125,135,-142.5,135,280,3,SBD,Raw
Aikaterini Mostratou,F,1997-03-29,Open,63,62.8,157.5,165,-167.5,165,85,90,-95,90,165,175,182.5,182.5,437.5,1,SBD,Raw
Georgia Mpouxti,F,1998-10-31,Open,63,58.6,92.5,100,107.5,107.5,52.5,-55,,52.5,120,130,135,135,295,2,SBD,Raw
Lili Xatzistylli,F,1996-10-21,Open,63,60,-90,95,100,100,45,52.5,57.5,57.5,117.5,125,135,135,292.5,3,SBD,Raw
Ioanna Armaou,F,1990-07-06,Open,69,67.2,120,127.5,132.5,132.5,52.5,57.5,60,60,155,165,170,170,362.5,1,SBD,Raw
Monika Hlia,F,1986-04-10,Open,69,65.25,115,122.5,130,130,50,57.5,60,60,150,162.5,170,170,360,2,SBD,Raw
Ioanna Giakoumaki,F,1993-01-24,Open,69,68.3,120,-127.5,-127.5,120,-75,77.5,,77.5,145,-150,,145,342.5,3,SBD,Raw
Eleni Farantouri,F,1995-12-27,Open,76,74.3,100,-110,112.5,112.5,52.5,57.5,60,60,90,110,130,130,302.5,1,SBD,Raw
Anastasia Gkogkou,F,1997-04-30,Open,84,81.6,90,-100,-100,90,30,32.5,-35,32.5,110,117.5,-120,117.5,240,1,SBD,Raw
Theodora Sarafidou,F,1982-06-12,Masters 1,84,81.2,-115,120,-130,120,40,50,-55,50,100,115,130,130,300,1,SBD,Raw
Georgios Xristoforidis,M,,Sub-Junior,74,73.75,90,100,105,105,-90,90,100,100,150,165,175,175,380,1,SBD,Raw
Alexandros Zaxaris,M,2007-05-18,Sub-Junior,74,71.35,80,92.5,100,100,-80,-90,-90,,100,115,-125,115,,DQ,SBD,Raw
Nikolaos Karras,M,2005-01-19,Sub-Junior,83,81.5,155,165,172.5,172.5,117.5,125,-130,125,200,215,217.5,217.5,515,1,SBD,Raw
Andreas Orgetas,M,2004-06-29,Sub-Junior,83,76.8,145,155,165,165,120,125,-127.5,125,-200,-200,200,200,490,2,SBD,Raw
Emmanouil Olympios Papoutsakis Mavriotis,M,2004-07-15,Sub-Junior,93,89.1,195,205,-215,205,125,132.5,135,135,240,260,-270,260,600,1,SBD,Raw
Stelios Gkinis,M,2004-11-17,Sub-Junior,93,89.9,140,150,-162.5,150,90,-100,-100,90,230,250,-262.5,250,490,2,SBD,Raw
Alkis Papagiannis,M,2006-02-08,Sub-Junior,105,94.6,165,175,185,185,-115,122.5,-130,122.5,190,200,212.5,212.5,520,1,SBD,Raw
Odysseas Markou,M,2007-09-18,Sub-Junior,120+,123.4,220,235,-242.5,235,105,115,120,120,225,235,242.5,242.5,597.5,1,SBD,Raw
Marios Liatsis,M,2000-10-07,Junior,66,62.8,180,190,-200,190,125,-130,-130,125,210,-230,230,230,545,1,SBD,Raw
Dimitris Diamantis,M,2001-10-08,Junior,66,64,105,115,125,125,80,-85,-90,80,172.5,182.5,192.5,192.5,397.5,2,SBD,Raw
Hlias Rontogiannis,M,2002-11-14,Junior,66,63.85,90,100,-107.5,100,75,80,-85,80,122.5,132.5,140,140,320,3,SBD,Raw
Vasilis Kylindris,M,2000-03-06,Junior,74,73.65,-190,195,210,210,-140,-140,140,140,215,225,235,235,585,1,SBD,Raw
Mixail Aggelos Xristoforou,M,2001-04-12,Junior,74,72.95,160,165,-167.5,165,110,115,117.5,117.5,240,252.5,265,265,547.5,2,SBD,Raw
Kostas Dimitriou,M,2003-08-08,Junior,74,72,-170,180,185,185,120,127.5,130.5,130.5,230,-232.5,-256,230,545.5,3,SBD,Raw
Alexandros Alexandris,M,1999-05-11,Junior,74,73.6,165,170,-175,170,-115,117.5,120,120,185,195,-200,195,485,4,SBD,Raw
Basilis Oktaras,M,2000-11-05,Junior,74,74,-140,147.5,155,155,87.5,-95,-95,87.5,200,-215,220,220,462.5,5,SBD,Raw
Eleutherios Batsithianos,M,2002-04-29,Junior,74,72,-180,-180,200,200,90,100,-110,100,140,150,160,160,460,6,SBD,Raw
Ioannis Mandalas,M,2003-11-29,Junior,74,73.6,150,160,-165,160,110,-117.5,-117.5,110,180,190,-195,190,460,7,SBD,Raw
Alexandros Gkikas,M,2000-08-31,Junior,74,72,-130,-137.5,142.5,142.5,95,102.5,-107.5,102.5,160,-175,190,190,435,8,SBD,Raw
Andreas Vasilakis,M,2002-12-19,Junior,74,73.25,125,-132.5,137.5,137.5,97.5,107.5,112.5,112.5,160,172.5,185,185,435,9,SBD,Raw
Dimitris Davazoglou,M,2001-04-17,Junior,83,82.2,205,215,225,225,152.5,-165,-165,152.5,250,265,272.5,272.5,650,1,SBD,Raw
Alex Retzepai,M,2000-07-20,Junior,83,81.95,190,200,-205,200,-130,130,132.5,132.5,220,240,252.5,252.5,585,2,SBD,Raw
Xaralampos Aletras,M,2002-11-17,Junior,83,81.3,180,185,-190,185,145,-150,150,150,-210,215,-222.5,215,550,3,SBD,Raw
Evaggelos Tziavaras,M,1999-05-12,Junior,83,80.6,160,-162.5,-180,160,115,135,-140,135,220,-240,250,250,545,4,SBD,Raw
Konstantinos Konstantatos,M,2001-05-26,Junior,83,81.1,185,200,-205,200,120,125,-130,125,200,220,-230,220,545,5,SBD,Raw
Stavros Louvaris,M,2000-07-10,Junior,83,81.8,170,180,-187.5,180,130,132.5,140,140,210,222.5,,222.5,542.5,6,SBD,Raw
Konstantinos Manolidis,M,2003-12-27,Junior,83,80.9,180,-190,190,190,110,-117.5,117.5,117.5,205,220,-230,220,527.5,7,SBD,Raw
Athanasio Yfantis,M,1999-12-29,Junior,83,80.1,165,172.5,180,180,100,107.5,-112.5,107.5,205,220,230,230,517.5,8,SBD,Raw
Stavros Vavougyios,M,2003-08-30,Junior,83,81.95,170,180,185,185,105,-110,-110,105,205,220,-230,220,510,9,SBD,Raw
Thanos Anastasiou,M,2002-01-13,Junior,83,81.75,180,-192.5,-192.5,180,110,115,-120,115,210,-222.5,-222.5,210,505,10,SBD,Raw
Dimitris Stamatopoulos,M,2003-07-20,Junior,83,79.7,150,162.5,-167.5,162.5,107.5,115,120,120,185,200,-210,200,482.5,11,SBD,Raw
Basileios Kytinos,M,2002-07-27,Junior,83,80.3,160,-175,-180,160,107.5,115,-120,115,190,205,-215,205,480,12,SBD,Raw
Moustafa Mpoutagieb,M,2000-01-30,Junior,83,80.5,-160,165,-170,165,-120,125,-130,125,170,185,-190,185,475,13,SBD,Raw
Georgios Tsaparas,M,2000-02-16,Junior,83,82.5,155,-162.5,-162.5,155,110,-115,,110,165,175,-185,175,440,14,SBD,Raw
Nikos Chrysafis,M,1999-09-10,Junior,83,80.7,122.5,132.5,137.5,137.5,70,75,-80,75,160,170,180,180,392.5,15,SBD,Raw
Alexandros Giannakidis,M,2000-09-01,Junior,83,80.7,-190,-190,-190,,130,140,-155,140,245,-255,-255,245,,DQ,SBD,Raw
Georgios Lymperopoulos,M,2001-09-19,Junior,93,88.85,230,245,250,250,135,142.5,145,145,255,275,278,278,673,1,SBD,Raw
Konstantinos Mavropodis,M,2000-04-09,Junior,93,89.4,-215,-235,240,240,135,145,155,155,235,255,270,270,665,2,SBD,Raw
Ioannis Aristeidis Pappas,M,1999-12-01,Junior,93,89.45,215,227.5,232.5,232.5,155,157.5,162.5,162.5,250,-270,-270,250,645,3,SBD,Raw
Aggelos Almouti,M,2001-04-10,Junior,93,88.7,215,230,-235,230,142.5,150,-152.5,150,245,255,-270,255,635,4,SBD,Raw
Dimitris Papadimitriou,M,1999-11-01,Junior,93,91.25,-190,200,210,210,145,150,-162.5,150,-245,260,270,270,630,5,SBD,Raw
Georgios Theodorou,M,2003-12-02,Junior,93,90,-215,-215,220,220,122.5,130,-135,130,-245,250,265,265,615,6,SBD,Raw
Panagiotis Mpoldoglou,M,2000-05-31,Junior,93,92.45,210,220,-227.5,220,137.5,140,-147.5,140,242.5,250,255,255,615,7,SBD,Raw
Thodoris Papadopoulos,M,1999-12-22,Junior,93,91.9,180,190,-195,190,-137.5,137.5,-142.5,137.5,240,250,-265,250,577.5,8,SBD,Raw
Leonidas Ioannis Karagiannis,M,1999-07-25,Junior,93,91.75,185,195,200,200,130,140,-142.5,140,205,225,-240,225,565,9,SBD,Raw
Nikolaos Raikidis,M,2000-11-28,Junior,93,92.45,175,185,-190,185,115,122.5,127.5,127.5,215,225,-235,225,537.5,10,SBD,Raw
Savvas Savvas,M,1999-12-18,Junior,93,86.9,-165,165,180,180,127.5,135,-140,135,200,217.5,-230,217.5,532.5,11,SBD,Raw
Stelios Konstantinou,M,2000-05-18,Junior,93,90.2,150,160,-167.5,160,102.5,110,-112.5,110,205,212.5,-215,212.5,482.5,12,SBD,Raw
Alkiviadis Iliopoulos,M,2001-11-16,Junior,93,90.9,155,165,-175,165,100,107.5,110,110,180,-192.5,200,200,475,13,SBD,Raw
Emmanouil Giatsoglou,M,2001-12-04,Junior,93,89.9,110,-125,125,125,62.5,72.5,80,80,180,190,-195,190,395,14,SBD,Raw
Dimitrios Christidis,M,2002-10-03,Junior,93,85.7,150,165,-167.5,165,-115,-125,-125,,190,200,-212.5,200,,DQ,SBD,Raw
Manousos Kimionis,M,2000-07-13,Junior,105,102.5,235,242.5,-250,242.5,135,142.5,150,150,270,-282.5,285,285,677.5,1,SBD,Raw
Marios Sotirakis,M,1999-02-10,Junior,105,94.95,220,235,250,250,135,145,-150,145,220,-240,250,250,645,2,SBD,Raw
Socrates Perras,M,1999-06-03,Junior,105,101.3,205,215,-225,215,130,137.5,142.5,142.5,225,235,242.5,242.5,600,3,SBD,Raw
Pavlos Nektarios Pantelakis,M,1999-04-23,Junior,105,99.8,100,,,100,175,182.5,-187.5,182.5,140,,,140,422.5,4,SBD,Raw
Nikolas Nikolaou,M,1999-01-04,Junior,120,117.2,275,-285,285,285,150,-157.5,-157.5,150,275,290,300,300,735,1,SBD,Raw
Spyridon Symeonidis,M,1999-08-05,Junior,120,105.8,-180,180,-190,180,105,112.5,-117.5,112.5,180,200,210,210,502.5,2,SBD,Raw
Gerasimos Papadopoulos,M,2002-10-03,Junior,120,108.9,140,-155,-162.5,140,90,97.5,-100,97.5,200,215,-220,215,452.5,3,SBD,Raw
Konstantinos Gatsos,M,1992-02-15,Open,66,64.9,120,-127.5,-127.5,120,90,-95,-95,90,160,162.5,175,175,385,1,SBD,Raw
Antonis Xaralampous,M,1991-02-14,Open,66,65.55,110,-120,-130,110,60,70,-80,70,140,150,160,160,340,2,SBD,Raw
Nick Michalopoulos,M,1992-09-20,Open,74,73.45,175,-185,-185,175,130,135,137.5,137.5,212.5,225,235,235,547.5,1,SBD,Raw
Theodoros Pavlidis,M,1996-08-26,Open,74,73.95,195,-210,-222.5,195,125,-130,-130,125,195,215,-225,215,535,2,SBD,Raw
Hlias Kantzelis,M,1998-07-03,Open,74,73,165,170,177.5,177.5,107.5,-112.5,112.5,112.5,195,207.5,220,220,510,3,SBD,Raw
Stavros Ampatzis,M,1995-04-29,Open,74,72.7,152.5,-160,160,160,95,-100,105,105,190,192.5,202.5,202.5,467.5,4,SBD,Raw
Xristos Titos Pragias,M,1989-03-19,Open,74,72.25,140,150,155,155,105,110,-115,110,180,190,200,200,465,5,SBD,Raw
Georgios Kolofotias,M,1989-04-13,Open,74,70.65,-130,130,-150,130,110,120,-140,120,140,160,-175,160,410,6,SBD,Raw
Alexandros Sakarikas,M,1987-12-31,Open,83,80.75,220,-230,230,230,145,-150,-150,145,240,260,-280,260,635,1,SBD,Raw
Ioannis Giannakopoulos,M,1986-09-28,Open,83,82.2,210,225,-230,225,137.5,142.5,145,145,255,265,-270,265,635,2,SBD,Raw
Ioannis Perisianidis,M,1997-12-20,Open,83,82.65,180,190,197.5,197.5,-105,110,115,115,265,282.5,300,300,612.5,3,SBD,Raw
Xaris Tzegiannakis,M,1989-10-14,Open,83,81.95,200,210,215,215,132.5,137.5,140,140,220,227.5,240,240,595,4,SBD,Raw
Konstantinos Stergiou,M,1996-12-17,Open,83,81.35,190,202.5,-210,202.5,140,150,,150,230,240,-245,240,592.5,5,SBD,Raw
Athanasios Sarafis,M,1997-10-10,Open,83,78,175,187.5,-195,187.5,110,117.5,125,125,205,217.5,225,225,537.5,6,SBD,Raw
Nikolaos Mousios,M,1996-04-22,Open,83,80.95,175,185,-192.5,185,110,117.5,-127.5,117.5,220,227.5,-242.5,227.5,530,7,SBD,Raw
Nikolaos Bonitsanos,M,1998-01-03,Open,83,82.15,-165,170,-175,170,120,-127.5,-130,120,180,190,-195,190,480,8,SBD,Raw
Dionysios Ksenos,M,1998-04-29,Open,83,77.15,155,162.5,170,170,-115,,,,200,205,210,210,380,9,SBD,Raw
Nikolaos Ploumis,M,1998-02-25,Open,83,78.65,-125,130,-135,130,75,80,-85,80,135,145,152.5,152.5,362.5,10,SBD,Raw
Michael Fotis,M,1993-10-19,Open,93,91.65,-265,275,290,290,160,170,-175,170,300,-322.5,-340,300,760,1,SBD,Raw
Konstantinos Barounis,M,1997-03-07,Open,93,92.95,245,255,265,265,145,-152.5,-152.5,145,275,290,302.5,302.5,712.5,2,SBD,Raw
Ioannis Koutsogiorgos,M,1996-12-24,Open,93,90.75,260,272.5,280,280,-135,135,-140,135,260,270,-280,270,685,3,SBD,Raw
Emmanouil Varveris,M,,Open,93,92.75,-235,240,250,250,150,160,165,165,240,260,270,270,685,4,SBD,Raw
Petros Zaranis,M,1997-06-25,Open,93,91.5,220,230,-237.5,230,152.5,160,165,165,240,252.5,262.5,262.5,657.5,5,SBD,Raw
Aggelos Karonis,M,1991-02-27,Open,93,90.55,215,-222.5,225,225,145,152.5,-157.5,152.5,235,250,260,260,637.5,6,SBD,Raw
Basilis Tasoulis,M,1996-07-18,Open,93,92.95,200,215,-220,215,140,-150,-150,140,245,260,-270,260,615,7,SBD,Raw
Yao Tian,M,1992-02-12,Open,93,88.95,-202.5,212.5,220,220,-127.5,135,-140,135,230,242.5,-250,242.5,597.5,8,SBD,Raw
Georgios Kimionis,M,1985-08-21,Open,93,93,190,-200,205,205,132.5,-140,-140,132.5,210,220,-225,220,557.5,9,SBD,Raw
Giannis Kotidis,M,1994-01-31,Open,93,91,170,-182.5,,170,-135,135,-140,135,-220,225,232.5,232.5,537.5,10,SBD,Raw
Panagiotis Leopoulos,M,1995-04-05,Open,93,91.15,185,195,202.5,202.5,110,-117.5,-117.5,110,200,220,-225,220,532.5,11,SBD,Raw
Aris Mpilalis,M,1989-08-20,Open,93,92.15,180,-190,190,190,125,132.5,-137.5,132.5,-190,200,-220,200,522.5,12,SBD,Raw
Christos Kanellopoulos,M,1995-09-06,Open,93,91,-180,180,190,190,125,130,-135,130,185,200,-210,200,520,13,SBD,Raw
Panagiotis Malkoukis,M,1996-06-21,Open,93,90,-180,187.5,-192.5,187.5,105,-112.5,-112.5,105,210,220,-230,220,512.5,14,SBD,Raw
Georgios Spyropoulos,M,1996-09-28,Open,93,91.05,220,-225,-225,220,-155,-155,-155,,275,-300,-300,275,,DQ,SBD,Raw
Konstantinos Soulopoulos,M,1993-02-04,Open,105,104.2,260,275,285,285,180,192.5,200,200,275,292.5,-305,292.5,777.5,1,SBD,Raw
Nikolaos Kakaletris,M,1993-04-20,Open,105,102.5,270,282.5,-287.5,282.5,160,170,-177.5,170,285,302.5,-315,302.5,755,2,SBD,Raw
Xristos Xiarxos,M,1990-09-28,Open,105,102.4,240,-250,250,250,145,155,-165,155,292.5,310,-317.5,310,715,3,SBD,Raw
Andreas Assiotis,M,1984-08-16,Open,105,102.35,230,242.5,250,250,150,162.5,170,170,280,292.5,-300,292.5,712.5,4,SBD,Raw
Dimosthenis Apostolou,M,1997-04-01,Open,105,101.65,210,217.5,225,225,145,-152.5,152.5,152.5,225,240,250,250,627.5,5,SBD,Raw
Manolis Konidakis,M,1998-11-27,Open,105,101.45,210,220,-230,220,140,150,155,155,240,250,-260,250,625,6,SBD,Raw
Panagiotis Karyotis,M,1984-04-08,Open,105,99.15,190,200,220,220,165,175,187.5,187.5,200,215,-225,215,622.5,7,SBD,Raw
Themistoklis Antoniadis,M,1994-05-06,Open,105,102.2,175,185,192.5,192.5,125,130,-135,130,275,290,-300,290,612.5,8,SBD,Raw
Apostolos Routzomanis,M,1985-08-19,Open,105,101.9,175,185,-190,185,100,110,112.5,112.5,215,-225,230,230,527.5,9,SBD,Raw
Nikolaos Ntaountakis,M,1988-08-29,Open,105,103.1,165,170,-175,170,95,100,105,105,210,-225,230,230,505,10,SBD,Raw
Spyros Tzolis,M,1989-08-17,Open,105,102.4,-155,-155,155,155,100,-105,110,110,175,-190,190,190,455,11,SBD,Raw
Theodoris Karteris,M,1993-09-04,Open,105,95.1,160,170,175,175,-125,-135,-140,,225,235,245,245,,DQ,SBD,Raw
Konstantinos Katsaridis,M,1996-11-27,Open,105,97.7,-145,-152.5,-152.5,,115,117.5,125,125,190,205,-215,205,,DQ,SBD,Raw
Anastasios Tersenidis,M,1989-07-15,Open,120,115.7,245,260,270,270,180,200,205,205,280,310,320,320,795,1,SBD,Raw
Ioannis Papageorgiou,M,1996-06-21,Open,120,107.95,250,260,265,265,182.5,190,-200,190,300,315,325,325,780,2,SBD,Raw
Alexandros Ioannis Drosos,M,1997-07-09,Open,120,118.4,250,262.5,270,270,175,182.5,187.5,187.5,295,310,-315,310,767.5,3,SBD,Raw
Hlias Mpampatsikos,M,1997-01-31,Open,120,114.4,235,255,-265,255,160,175,-185,175,250,-265,-275,250,680,4,SBD,Raw
Fotis Lekatsas-Loukas,M,1987-08-05,Open,120,114,200,210,220,220,140,150,160,160,220,235,250,250,630,5,SBD,Raw
Stylianos Mourlas,M,1982-08-09,Open,120,117.6,180,190,,190,-210,210,,210,200,220,-235,220,620,6,SBD,Raw
Georgios Kefalas,M,1991-10-08,Open,120,113.1,175,185,-192.5,185,115,125,-130,125,210,230,237.5,237.5,547.5,7,SBD,Raw
Stavros Poniris,M,1997-02-06,Open,120+,139.8,-250,250,260,260,190,195,-200,195,250,265,-275,265,720,1,SBD,Raw
Christoforos Arvanitis,M,1984-09-27,Open,120+,147.6,200,220,230,230,110,-120,120,120,210,220,235,235,585,2,SBD,Raw
Georgios Koustenis,M,1990-06-07,Open,120+,130.4,-150,150,,150,135,145,155,155,210,222.5,,222.5,527.5,3,SBD,Raw
Theodoris Katsaros,M,1981-11-11,Masters 1,83,80.8,160,172.5,177.5,177.5,130,142.5,-147.5,142.5,220,-232.5,-232.5,220,540,1,SBD,Raw
Georgios Perivolaris,M,1976-06-30,Masters 1,93,87.1,180,185,190,190,110,115,-120,115,240,252.5,-265,252.5,557.5,1,SBD,Raw
Vangelis Simintzis,M,1980-10-28,Masters 1,93,89.95,177.5,187.5,192.5,192.5,120,127.5,,127.5,210,220,-225,220,540,2,SBD,Raw
Alexios Kontaxis,M,1981-08-04,Masters 1,105,97.3,-190,200,210,210,100,-120,120,120,190,200,220,220,550,1,SBD,Raw
Mixail Sakellaris,M,1972-04-02,Masters 2,105,103.1,150,165,170,170,110,120,-127.5,120,180,190,200,200,490,2,SBD,Raw
Ioannis Xristodoulou,M,1977-12-02,Masters 1,120,117.2,215,230,245,245,110,125,-132.5,125,225,235,245,245,615,1,SBD,Raw
Anestis Tsapakidis,M,1979-10-10,Masters 1,120+,149.5,220,235,250,250,140,155,170,170,210,230,250,250,670,1,SBD,Raw
Theodoros Salimkas,M,1974-11-08,Masters 1,120+,153.5,145,152.5,157.5,157.5,117.5,125,130,130,155,165,175,175,462.5,2,SBD,Raw
Konstantinos Lazaris,M,1969-01-18,Masters 2,83,76.75,160,170,180,180,115,125,127.5,127.5,170,185,200,200,507.5,1,SBD,Raw